Time series forcasting
…
retail

## # A tibble: 541,909 x 13
##    InvoiceNo StockCode                         Description Quantity
##        <chr>     <chr>                               <chr>    <int>
##  1    536365    85123A  WHITE HANGING HEART T-LIGHT HOLDER        6
##  2    536365     71053                 WHITE METAL LANTERN        6
##  3    536365    84406B      CREAM CUPID HEARTS COAT HANGER        8
##  4    536365    84029G KNITTED UNION FLAG HOT WATER BOTTLE        6
##  5    536365    84029E      RED WOOLLY HOTTIE WHITE HEART.        6
##  6    536365     22752        SET 7 BABUSHKA NESTING BOXES        2
##  7    536365     21730   GLASS STAR FROSTED T-LIGHT HOLDER        6
##  8    536366     22633              HAND WARMER UNION JACK        6
##  9    536366     22632           HAND WARMER RED POLKA DOT        6
## 10    536367     84879       ASSORTED COLOUR BIRD ORNAMENT       32
## # ... with 541,899 more rows, and 9 more variables: InvoiceDate <dttm>,
## #   UnitPrice <dbl>, CustomerID <int>, Country <chr>, day <date>,
## #   time <time>, month <chr>, income <dbl>, income_return <chr>
…
